<svg width="112" height="200" viewBox="0 0 112 200" fill="none" xmlns="http://www.w3.org/2000/svg">
<rect width="112" height="200" fill="#E5E5E5"/>
<rect width="112" height="200" rx="3" fill="#616161"/>
<rect x="74" width="4" height="200" fill="#E2BD38"/>
<rect x="37" width="4" height="200" fill="#E2BD38"/>
<rect x="108" width="4" height="200" fill="black" fill-opacity="0.19"/>
<rect x="74" width="4" height="200" fill="#E2BD38"/>
<rect width="4" height="200" fill="black" fill-opacity="0.19"/>
<rect x="77" width="1" height="200" fill="#2C2C2C" fill-opacity="0.3"/>
<rect x="40" width="1" height="200" fill="#2C2C2C" fill-opacity="0.3"/>
<mask id="mask0" mask-type="alpha" maskUnits="userSpaceOnUse" x="0" y="0" width="112" height="200">
<rect width="112" height="200" rx="3" fill="#616161"/>
</mask>
<g mask="url(#mask0)">
</g>
</svg>
